{"schemaVersion":"kumo.observable/v1","component":"pagination","canonical":{"package":"@cloudflare/kumo","version":"2.5.2","exportPath":"./components/pagination","typesPath":"dist/src/components/pagination/index.d.ts","runtimePath":"dist/components/pagination.js","typesSha256":"77edcec0d0034c3a20db1a7b28c866b064069002cd5882bde3dcb06aadab8a8d","runtimeSha256":"387d7219fd2a0e30d4891612d9f151fcf50a816de53bf9219ab2cc9ea89ceaf5","irSchemaVersion":"kumo.ir/v1"},"publicApi":{"exports":["Pagination"],"props":{"page":"number","setPage":"callback","perPage":"number","totalCount":"number","labels":"PaginationLabels","controls":"full|simple","pageSelector":"input|dropdown","compound":"Info|PageSize|Controls|Separator"},"defaults":{"page":1,"controls":"full","pageSelector":"input","labels":"English canonical labels"}},"semantics":{"root":"div","aria":["nav landmark has configurable label","boundary controls are disabled","legacy info is polite atomic live region","page and page-size selectors have configurable labels"]},"initialState":{"page":"controlled prop","editingPage":1,"maxPage":"ceil(totalCount/perPage)"},"transitions":[{"action":"navigation trusted click","effect":"setPage receives bounded target"},{"action":"page input Enter or blur","effect":"numeric value is clamped to [1,maxPage] and committed"},{"action":"dropdown selection","effect":"selected numeric page is committed"},{"action":"page-size selection","effect":"onChange receives numeric size"}],"keyboardFocus":{"focusable":true,"keys":["Enter","Tab","ArrowUp","ArrowDown"]},"ssrHydration":{"ssr":"supported","hydration":"identical"},"stylingAssets":{"classes":["flex","items-center","gap-2","w-full"],"assets":[]},"vectors":[{"id":"legacy-page-one","props":{"page":1,"perPage":10,"totalCount":35},"expected":{"root":{"tag":"div","attributes":{"includes":{"data-slot":"pagination"}}},"descendants":[{"selector":"nav","count":1,"attributes":{"includes":{"aria-label":"Pagination"}}},{"selector":"button","count":4},{"selector":"input","count":1,"attributes":{"includes":{"aria-label":"Page number","value":"1"}}}]}},{"id":"legacy-page-three-ssr","props":{"page":3,"perPage":10,"totalCount":35},"actions":[],"expected":{"root":{"tag":"div"},"descendants":[{"selector":"input","count":1,"attributes":{"includes":{"value":"1"}}}],"state":{"hydratedValue":"3","nodeIdentity":true},"events":[]}},{"id":"next-controlled","props":{"page":2,"perPage":10,"totalCount":35},"actions":[{"type":"click","selector":"[aria-label=\"Next page\"]"}],"expected":{"root":{"tag":"div"},"state":{"page":3},"events":["page:3"],"focus":"[aria-label=\"Next page\"]"}},{"id":"boundaries","props":{"page":4,"perPage":10,"totalCount":35},"actions":[{"type":"click","selector":"[aria-label=\"Next page\"]"}],"expected":{"root":{"tag":"div"},"state":{"page":4,"nextDisabled":true,"lastDisabled":true},"events":[],"focus":"none"}},{"id":"input-enter-clamp","props":{"page":2,"perPage":10,"totalCount":35},"actions":[{"type":"focus","selector":"input"},{"type":"type","selector":"input","text":"99","editMode":"replace"},{"type":"key","selector":"input","key":"Enter"}],"expected":{"root":{"tag":"div"},"state":{"page":4,"input":"4"},"events":["page:4"],"focus":"input"}},{"id":"input-blur-clamp","props":{"page":2,"perPage":10,"totalCount":35},"actions":[{"type":"focus","selector":"input"},{"type":"type","selector":"input","text":"0","editMode":"replace"},{"type":"blur","selector":"input"}],"expected":{"root":{"tag":"div"},"state":{"page":1,"input":"1"},"events":["page:1"],"focus":"nav"}},{"id":"compound-simple-labels","props":{"page":2,"perPage":10,"totalCount":35,"fixtureMode":"simple","labels":{"navigation":"Results pages","previousPage":"Back","nextPage":"Forward"}},"expected":{"root":{"tag":"div"},"descendants":[{"selector":"nav","count":1,"attributes":{"includes":{"aria-label":"Results pages"}}},{"selector":"button","count":2}]}},{"id":"compound-dropdown-size","props":{"page":2,"perPage":25,"totalCount":100,"fixtureMode":"dropdown"},"expected":{"root":{"tag":"div"},"descendants":[{"selector":"button","count":6}]}}],"unknowns":[{"field":"selectPopupPlatformPresentation","status":"unknown","reason":"Dropdown popup geometry, native accessibility projection, and keyboard details are inherited from the Kumo Select/Base UI implementation and browser; they are not guessed here."}]}
